{
    "name": "Golf",
    "author_nickname": "AndyB",
    "notes": "Get the ball into the hole!",
    "hint1": "Build some slopes to help the ball get over the lump.",
    "hint2": "Drop a heavy block on the ball to move it.",
    "hint3": "",
    "discussion_id": "70",
    "discussion_slug": "70-golf",
    "highlight_notes": false,
    "effects": {},
    "zoom": {
        "x": 0,
        "y": 0,
        "w": 20
    },
    "shapes": [
        {
            "id": 2,
            "number": -1
        },
        {
            "id": 4,
            "number": -1
        }
    ],
    "win_conditions": [
        {
            "bodyEnteredArea": [
                {
                    "RECT": [
                        {
                            "x": 2,
                            "y": 16
                        },
                        {
                            "x": 4,
                            "y": 17
                        }
                    ]
                },
                "main_car"
            ]
        }
    ],
    "lose_conditions": [
        {
            "greaterThan": [
                "time",
                10000
            ]
        }
    ],
    "blocks": [
        {
            "static_block": {
                "x": 4,
                "y": 16,
                "w": 16,
                "h": 4
            }
        },
        {
            "static_block": {
                "x": 7,
                "y": 15,
                "w": 5,
                "h": 1
            }
        },
        {
            "static_block": {
                "x": 0,
                "y": 17,
                "w": 4,
                "h": 3
            }
        },
        {
            "static_block": {
                "x": 0,
                "y": 16,
                "w": 2,
                "h": 1
            }
        },
        {
            "shape_block": {
                "x": 12,
                "y": 15,
                "id": 4,
                "rotation": 0,
                "reflected": false
            }
        },
        {
            "shape_block": {
                "x": 6,
                "y": 15,
                "id": 4,
                "rotation": 270,
                "reflected": false
            }
        },
        {
            "shape_block": {
                "x": 16,
                "y": 9,
                "id": 2,
                "rotation": 270,
                "reflected": false
            }
        }
    ],
    "dynamic_objects": [
        {
            "ball": {
                "x": 16,
                "y": 15,
                "id": "main_car"
            }
        }
    ]
}
