{
    "name": "climb",
    "author_nickname": "JEP",
    "notes": "You are blocked!",
    "hint1": "The best solution to this level is not to climb at all!",
    "hint2": "Build up blocks so you drive left without dropping first.",
    "hint3": "Place some blue blocks diretly underneath the car.",
    "discussion_id": "178",
    "discussion_slug": "178-climb",
    "effects": {},
    "shapes": [
        {
            "id": 0,
            "number": -1
        },
        {
            "id": 1,
            "number": -1
        },
        {
            "id": 2,
            "number": -1
        },
        {
            "id": 3,
            "number": -1
        },
        {
            "id": 4,
            "number": -1
        }
    ],
    "win_conditions": [
        {
            "bodyEnteredArea": [
                {
                    "RECT": [
                        {
                            "x": 3,
                            "y": 11
                        },
                        {
                            "x": 5,
                            "y": 13
                        }
                    ]
                },
                "main_car"
            ]
        },
        {
            "bodyEnteredArea": [
                {
                    "RECT": [
                        {
                            "x": 3,
                            "y": 9
                        },
                        {
                            "x": 5,
                            "y": 11
                        }
                    ]
                },
                "main_car"
            ]
        },
        {
            "bodyEnteredArea": [
                {
                    "RECT": [
                        {
                            "x": 3,
                            "y": 7
                        },
                        {
                            "x": 5,
                            "y": 9
                        }
                    ]
                },
                "main_car"
            ]
        }
    ],
    "lose_conditions": [],
    "blocks": [
        {
            "static_block": {
                "x": 5,
                "y": 12,
                "w": 2,
                "h": 2
            }
        },
        {
            "static_block": {
                "x": 7,
                "y": 12,
                "w": 2,
                "h": 2
            }
        },
        {
            "static_block": {
                "x": 9,
                "y": 12,
                "w": 2,
                "h": 2
            }
        },
        {
            "static_block": {
                "x": 11,
                "y": 12,
                "w": 2,
                "h": 2
            }
        },
        {
            "static_block": {
                "x": 13,
                "y": 12,
                "w": 2,
                "h": 2
            }
        },
        {
            "static_block": {
                "x": 15,
                "y": 12,
                "w": 2,
                "h": 2
            }
        },
        {
            "static_block": {
                "x": 4,
                "y": 12,
                "w": 2,
                "h": 2
            }
        },
        {
            "static_block": {
                "x": 3,
                "y": 12,
                "w": 2,
                "h": 2
            }
        },
        {
            "static_block": {
                "x": 5,
                "y": 11,
                "w": 2,
                "h": 2
            }
        },
        {
            "static_block": {
                "x": 5,
                "y": 10,
                "w": 2,
                "h": 1
            }
        },
        {
            "shape_block": {
                "x": 7,
                "y": 11,
                "id": 3,
                "rotation": 0,
                "reflected": false
            }
        },
        {
            "shape_block": {
                "x": 9,
                "y": 11,
                "id": 3,
                "rotation": 0,
                "reflected": false
            }
        },
        {
            "shape_block": {
                "x": 11,
                "y": 11,
                "id": 3,
                "rotation": 0,
                "reflected": false
            }
        },
        {
            "shape_block": {
                "x": 13,
                "y": 11,
                "id": 3,
                "rotation": 0,
                "reflected": false
            }
        },
        {
            "shape_block": {
                "x": 15,
                "y": 11,
                "id": 3,
                "rotation": 0,
                "reflected": false
            }
        },
        {
            "shape_block": {
                "x": 11,
                "y": 10,
                "id": 4,
                "rotation": 180,
                "reflected": false
            }
        },
        {
            "shape_block": {
                "x": 10,
                "y": 10,
                "id": 4,
                "rotation": 180,
                "reflected": false
            }
        },
        {
            "shape_block": {
                "x": 9,
                "y": 10,
                "id": 4,
                "rotation": 180,
                "reflected": false
            }
        },
        {
            "shape_block": {
                "x": 8,
                "y": 10,
                "id": 4,
                "rotation": 180,
                "reflected": false
            }
        },
        {
            "shape_block": {
                "x": 7,
                "y": 10,
                "id": 4,
                "rotation": 180,
                "reflected": false
            }
        },
        {
            "shape_block": {
                "x": 12,
                "y": 10,
                "id": 4,
                "rotation": 180,
                "reflected": false
            }
        }
    ],
    "dynamic_objects": [
        {
            "left_car": {
                "x": 10,
                "y": 9,
                "id": "main_car"
            }
        }
    ]
}
