{
    "name": "Windy Tower",
    "author_nickname": "Ray 'BLJ' Duck",
    "notes": "Build a tower stable enough to withstand the wind which can hold up the block for 10 seconds.",
    "hint1": "build a cage round the block to prevent it from slipping off in the wind.",
    "hint2": "hook the tower round the platform to make a stable foundation.",
    "hint3": "",
    "discussion_id": "122",
    "discussion_slug": "122-windy-tower-fixed",
    "highlight_notes": false,
    "effects": {
        "wind": 20
    },
    "zoom": {
        "x": 0,
        "y": 0,
        "w": 40
    },
    "shapes": [
        {
            "id": 0,
            "number": -1
        },
        {
            "id": 1,
            "number": -1
        },
        {
            "id": 2,
            "number": -1
        },
        {
            "id": 3,
            "number": -1
        },
        {
            "id": 4,
            "number": -1
        }
    ],
    "win_conditions": [
        {
            "greaterThan": [
                "time",
                10000
            ]
        }
    ],
    "lose_conditions": [
        {
            "bodyEnteredArea": [
                {
                    "RECT": [
                        {
                            "x": -10,
                            "y": -2
                        },
                        {
                            "x": 30,
                            "y": 30
                        }
                    ]
                },
                "main_car"
            ]
        }
    ],
    "blocks": [
        {
            "static_block": {
                "x": 5,
                "y": 27,
                "w": 11,
                "h": 2
            }
        },
        {
            "shape_block": {
                "x": 9,
                "y": 25,
                "id": 2,
                "rotation": 0,
                "reflected": false
            }
        },
        {
            "shape_block": {
                "x": 9,
                "y": 23,
                "id": 2,
                "rotation": 0,
                "reflected": false
            }
        },
        {
            "shape_block": {
                "x": 9,
                "y": 21,
                "id": 2,
                "rotation": 0,
                "reflected": false
            }
        },
        {
            "shape_block": {
                "x": 9,
                "y": 19,
                "id": 2,
                "rotation": 0,
                "reflected": false
            }
        },
        {
            "shape_block": {
                "x": 9,
                "y": 17,
                "id": 2,
                "rotation": 0,
                "reflected": false
            }
        },
        {
            "shape_block": {
                "x": 9,
                "y": 15,
                "id": 2,
                "rotation": 0,
                "reflected": false
            }
        },
        {
            "shape_block": {
                "x": 9,
                "y": 13,
                "id": 2,
                "rotation": 0,
                "reflected": false
            }
        },
        {
            "shape_block": {
                "x": 9,
                "y": 11,
                "id": 2,
                "rotation": 0,
                "reflected": false
            }
        },
        {
            "shape_block": {
                "x": 9,
                "y": 9,
                "id": 2,
                "rotation": 0,
                "reflected": false
            }
        },
        {
            "shape_block": {
                "x": 9,
                "y": 7,
                "id": 2,
                "rotation": 0,
                "reflected": false
            }
        },
        {
            "shape_block": {
                "x": 9,
                "y": 5,
                "id": 2,
                "rotation": 0,
                "reflected": false
            }
        },
        {
            "shape_block": {
                "x": 9,
                "y": 3,
                "id": 2,
                "rotation": 0,
                "reflected": false
            }
        },
        {
            "shape_block": {
                "x": 9,
                "y": 1,
                "id": 2,
                "rotation": 0,
                "reflected": false
            }
        },
        {
            "shape_block": {
                "x": 9,
                "y": -1,
                "id": 2,
                "rotation": 0,
                "reflected": false
            }
        },
        {
            "shape_block": {
                "x": 9,
                "y": -3,
                "id": 2,
                "rotation": 0,
                "reflected": false
            }
        },
        {
            "shape_block": {
                "x": 11,
                "y": 25,
                "id": 2,
                "rotation": 270,
                "reflected": true
            }
        },
        {
            "shape_block": {
                "x": 11,
                "y": 23,
                "id": 2,
                "rotation": 270,
                "reflected": true
            }
        },
        {
            "shape_block": {
                "x": 11,
                "y": 21,
                "id": 2,
                "rotation": 270,
                "reflected": true
            }
        },
        {
            "shape_block": {
                "x": 7,
                "y": 21,
                "id": 2,
                "rotation": 270,
                "reflected": true
            }
        },
        {
            "shape_block": {
                "x": 7,
                "y": 23,
                "id": 2,
                "rotation": 270,
                "reflected": true
            }
        },
        {
            "shape_block": {
                "x": 7,
                "y": 25,
                "id": 2,
                "rotation": 270,
                "reflected": true
            }
        },
        {
            "shape_block": {
                "x": 5,
                "y": 25,
                "id": 2,
                "rotation": 270,
                "reflected": true
            }
        },
        {
            "shape_block": {
                "x": 5,
                "y": 23,
                "id": 2,
                "rotation": 270,
                "reflected": true
            }
        },
        {
            "shape_block": {
                "x": 13,
                "y": 23,
                "id": 2,
                "rotation": 270,
                "reflected": true
            }
        },
        {
            "shape_block": {
                "x": 13,
                "y": 25,
                "id": 2,
                "rotation": 270,
                "reflected": true
            }
        },
        {
            "shape_block": {
                "x": 11,
                "y": 19,
                "id": 2,
                "rotation": 270,
                "reflected": true
            }
        },
        {
            "shape_block": {
                "x": 11,
                "y": 17,
                "id": 2,
                "rotation": 270,
                "reflected": true
            }
        },
        {
            "shape_block": {
                "x": 7,
                "y": 19,
                "id": 2,
                "rotation": 270,
                "reflected": true
            }
        },
        {
            "shape_block": {
                "x": 7,
                "y": 17,
                "id": 2,
                "rotation": 270,
                "reflected": true
            }
        },
        {
            "shape_block": {
                "x": 3,
                "y": 25,
                "id": 2,
                "rotation": 270,
                "reflected": true
            }
        },
        {
            "shape_block": {
                "x": 3,
                "y": 27,
                "id": 2,
                "rotation": 270,
                "reflected": true
            }
        },
        {
            "shape_block": {
                "x": 3,
                "y": 29,
                "id": 2,
                "rotation": 270,
                "reflected": true
            }
        },
        {
            "shape_block": {
                "x": 5,
                "y": 29,
                "id": 2,
                "rotation": 270,
                "reflected": true
            }
        },
        {
            "shape_block": {
                "x": 11,
                "y": 15,
                "id": 2,
                "rotation": 270,
                "reflected": true
            }
        },
        {
            "shape_block": {
                "x": 11,
                "y": 13,
                "id": 2,
                "rotation": 270,
                "reflected": true
            }
        },
        {
            "shape_block": {
                "x": 11,
                "y": 11,
                "id": 2,
                "rotation": 270,
                "reflected": true
            }
        },
        {
            "shape_block": {
                "x": 11,
                "y": 9,
                "id": 2,
                "rotation": 270,
                "reflected": true
            }
        },
        {
            "shape_block": {
                "x": 11,
                "y": 7,
                "id": 2,
                "rotation": 270,
                "reflected": true
            }
        },
        {
            "shape_block": {
                "x": 11,
                "y": 5,
                "id": 2,
                "rotation": 270,
                "reflected": true
            }
        },
        {
            "shape_block": {
                "x": 11,
                "y": 3,
                "id": 2,
                "rotation": 270,
                "reflected": true
            }
        },
        {
            "shape_block": {
                "x": 11,
                "y": 1,
                "id": 2,
                "rotation": 270,
                "reflected": true
            }
        },
        {
            "shape_block": {
                "x": 11,
                "y": -1,
                "id": 2,
                "rotation": 270,
                "reflected": true
            }
        },
        {
            "shape_block": {
                "x": 5,
                "y": 21,
                "id": 2,
                "rotation": 270,
                "reflected": true
            }
        },
        {
            "shape_block": {
                "x": 3,
                "y": 23,
                "id": 2,
                "rotation": 270,
                "reflected": true
            }
        },
        {
            "shape_block": {
                "x": 7,
                "y": 15,
                "id": 2,
                "rotation": 270,
                "reflected": true
            }
        },
        {
            "shape_block": {
                "x": 7,
                "y": 13,
                "id": 2,
                "rotation": 270,
                "reflected": true
            }
        },
        {
            "shape_block": {
                "x": 11,
                "y": -4,
                "id": 2,
                "rotation": 270,
                "reflected": true
            }
        }
    ],
    "dynamic_objects": [
        {
            "box": {
                "x": 10,
                "y": -4,
                "id": "main_car"
            }
        }
    ]
}