{
    "name": "wait is that right",
    "author_nickname": "TBE",
    "notes": "Get the box into the green area.",
    "hint1": "Support the blue platform by building up from the bottom.",
    "hint2": "Place a block below the box to bounce it sideways.",
    "hint3": "A single slope might be enough, or you can build a slide for the box to follow.",
    "discussion_id": "211",
    "discussion_slug": "211-wait-is-that-right",
    "highlight_notes": false,
    "effects": {},
    "zoom": {
        "x": 0,
        "y": 0,
        "w": 60
    },
    "shapes": [
        {
            "id": 0,
            "number": -1
        },
        {
            "id": 1,
            "number": -1
        },
        {
            "id": 2,
            "number": -1
        },
        {
            "id": 3,
            "number": -1
        },
        {
            "id": 4,
            "number": -1
        }
    ],
    "win_conditions": [
        {
            "bodyEnteredArea": [
                {
                    "RECT": [
                        {
                            "x": 18,
                            "y": 7
                        },
                        {
                            "x": 21,
                            "y": 10
                        }
                    ]
                },
                "main_car"
            ]
        }
    ],
    "lose_conditions": [],
    "blocks": [
        {
            "shape_block": {
                "x": 1,
                "y": 10,
                "id": 2,
                "rotation": 0,
                "reflected": false
            }
        },
        {
            "shape_block": {
                "x": 3,
                "y": 10,
                "id": 2,
                "rotation": 0,
                "reflected": false
            }
        },
        {
            "shape_block": {
                "x": 5,
                "y": 10,
                "id": 2,
                "rotation": 0,
                "reflected": false
            }
        },
        {
            "shape_block": {
                "x": 7,
                "y": 10,
                "id": 2,
                "rotation": 0,
                "reflected": false
            }
        },
        {
            "shape_block": {
                "x": 9,
                "y": 10,
                "id": 2,
                "rotation": 0,
                "reflected": false
            }
        },
        {
            "shape_block": {
                "x": 11,
                "y": 10,
                "id": 2,
                "rotation": 0,
                "reflected": false
            }
        },
        {
            "shape_block": {
                "x": 13,
                "y": 10,
                "id": 2,
                "rotation": 0,
                "reflected": false
            }
        },
        {
            "shape_block": {
                "x": 15,
                "y": 10,
                "id": 2,
                "rotation": 0,
                "reflected": false
            }
        },
        {
            "shape_block": {
                "x": 17,
                "y": 10,
                "id": 2,
                "rotation": 0,
                "reflected": false
            }
        },
        {
            "shape_block": {
                "x": 19,
                "y": 10,
                "id": 2,
                "rotation": 0,
                "reflected": false
            }
        },
        {
            "static_block": {
                "x": -8,
                "y": 39,
                "w": 35,
                "h": 2
            }
        }
    ],
    "dynamic_objects": [
        {
            "box": {
                "x": 9,
                "y": -2,
                "id": "main_car"
            }
        },
        {
            "ball": {
                "x": 2,
                "y": 9,
                "id": "1"
            }
        }
    ]
}
