<?xml version="1.0" encoding="UTF-8" standalone="no"?>
<!-- Created with Inkscape (http://www.inkscape.org/) -->

<svg
   width="100"
   height="34"
   viewBox="0 0 26.458333 8.9958333"
   version="1.1"
   id="svg998"
   inkscape:version="1.1.2 (0a00cf5339, 2022-02-04)"
   sodipodi:docname="unfocus_editing.svg"
   xmlns:inkscape="http://www.inkscape.org/namespaces/inkscape"
   xmlns:sodipodi="http://sodipodi.sourceforge.net/DTD/sodipodi-0.dtd"
   xmlns="http://www.w3.org/2000/svg"
   xmlns:svg="http://www.w3.org/2000/svg">
  <sodipodi:namedview
     id="namedview1000"
     pagecolor="#ffffff"
     bordercolor="#666666"
     borderopacity="1.0"
     inkscape:pageshadow="2"
     inkscape:pageopacity="0.0"
     inkscape:pagecheckerboard="0"
     inkscape:document-units="px"
     showgrid="false"
     units="px"
     inkscape:lockguides="true"
     inkscape:zoom="4.4216952"
     inkscape:cx="46.023073"
     inkscape:cy="56.087086"
     inkscape:window-width="1920"
     inkscape:window-height="1025"
     inkscape:window-x="0"
     inkscape:window-y="29"
     inkscape:window-maximized="1"
     inkscape:current-layer="layer1" />
  <defs
     id="defs995" />
  <g
     inkscape:label="Layer 1"
     inkscape:groupmode="layer"
     id="layer1">
    <rect
       style="fill:none;stroke:#000000;stroke-width:1.00000002;stroke-miterlimit:4;stroke-dasharray:none;stroke-dashoffset:9.15;stroke-opacity:1"
       id="rect1428"
       width="7.3328362"
       height="6.0618973"
       x="2.032228"
       y="1.4881575" />
    <rect
       style="fill:none;stroke:#000000;stroke-width:1.00000002;stroke-miterlimit:4;stroke-dasharray:none;stroke-dashoffset:9.15;stroke-opacity:1"
       id="rect1428-7"
       width="7.3328362"
       height="6.0618973"
       x="17.310631"
       y="1.4006819" />
  </g>
</svg>
