{
    "name": "Back Door",
    "author_nickname": "Ray 'BLJ' Duck",
    "notes": "Convince the car to move backwards, towards the exit.",
    "hint1": "Did you know that pink is a car's least favourite colour? They will do a full 180 if they hit one.",
    "hint2": "A good thumb will make most people turn around.",
    "hint3": "Drop a box onto the car and use a slope block to angle it to go left.",
    "discussion_id": "74",
    "discussion_slug": "74-back-door",
    "highlight_notes": false,
    "effects": {},
    "zoom": {
        "x": -2,
        "y": 2,
        "w": 21
    },
    "shapes": [
        {
            "id": 0,
            "number": -1
        },
        {
            "id": 1,
            "number": -1
        },
        {
            "id": 2,
            "number": -1
        },
        {
            "id": 3,
            "number": -1
        },
        {
            "id": 4,
            "number": -1
        }
    ],
    "win_conditions": [
        {
            "bodyEnteredArea": [
                {
                    "RECT": [
                        {
                            "x": 0,
                            "y": 13
                        },
                        {
                            "x": 3,
                            "y": 18
                        }
                    ]
                },
                "main_car"
            ]
        }
    ],
    "lose_conditions": [],
    "blocks": [
        {
            "static_block": {
                "x": 0,
                "y": 20,
                "w": 11,
                "h": 1
            }
        },
        {
            "shape_block": {
                "x": 11,
                "y": 18,
                "id": 2,
                "rotation": 0,
                "reflected": false
            }
        },
        {
            "static_block": {
                "x": 14,
                "y": 18,
                "w": 1,
                "h": 2
            }
        },
        {
            "static_block": {
                "x": 11,
                "y": 20,
                "w": 4,
                "h": 1
            }
        },
        {
            "static_block": {
                "x": 0,
                "y": 18,
                "w": 1,
                "h": 2
            }
        },
        {
            "shape_block": {
                "x": 1,
                "y": 18,
                "id": 2,
                "rotation": 0,
                "reflected": false
            }
        },
        {
            "shape_block": {
                "x": 3,
                "y": 18,
                "id": 2,
                "rotation": 0,
                "reflected": false
            }
        },
        {
            "shape_block": {
                "x": 5,
                "y": 18,
                "id": 2,
                "rotation": 0,
                "reflected": false
            }
        },
        {
            "shape_block": {
                "x": 7,
                "y": 18,
                "id": 2,
                "rotation": 0,
                "reflected": false
            }
        },
        {
            "shape_block": {
                "x": 9,
                "y": 18,
                "id": 2,
                "rotation": 0,
                "reflected": false
            }
        },
        {
            "shape_block": {
                "x": 13,
                "y": 18,
                "id": 3,
                "rotation": 90,
                "reflected": false
            }
        },
        {
            "shape_block": {
                "x": 13,
                "y": 16,
                "id": 2,
                "rotation": 0,
                "reflected": false
            }
        },
        {
            "shape_block": {
                "x": 13,
                "y": 14,
                "id": 2,
                "rotation": 0,
                "reflected": false
            }
        },
        {
            "shape_block": {
                "x": 12,
                "y": 17,
                "id": 4,
                "rotation": 270,
                "reflected": false
            }
        },
        {
            "shape_block": {
                "x": 11,
                "y": 4,
                "id": 2,
                "rotation": 270,
                "reflected": false
            }
        }
    ],
    "dynamic_objects": [
        {
            "simple_car": {
                "x": 10,
                "y": 16,
                "id": "main_car"
            }
        }
    ]
}
