{
    "name": "Turkey airlines",
    "author_nickname": "Ray 'BLJ' Duck",
    "notes": "Break the tethers connected to the flying machine so it can reach the top!",
    "hint1": "Try hitting the tethers with something heavy - the bonds between blocks are very strong.",
    "hint2": "Using a slope to make a sharp edge will help removing the tethers.",
    "hint3": "",
    "discussion_id": "98",
    "discussion_slug": "98-turkey-airlines",
    "highlight_notes": false,
    "effects": {},
    "zoom": {
        "x": -2,
        "y": 5,
        "w": 30
    },
    "shapes": [
        {
            "id": 0,
            "number": -1
        },
        {
            "id": 1,
            "number": -1
        },
        {
            "id": 2,
            "number": -1
        },
        {
            "id": 3,
            "number": -1
        },
        {
            "id": 4,
            "number": -1
        }
    ],
    "win_conditions": [
        {
            "bodyEnteredArea": [
                {
                    "RECT": [
                        {
                            "x": -7,
                            "y": 0
                        },
                        {
                            "x": 23,
                            "y": 2
                        }
                    ]
                },
                "main_car"
            ]
        }
    ],
    "lose_conditions": [
        {
            "greaterThan": [
                "time",
                10000
            ]
        }
    ],
    "blocks": [
        {
            "shape_block": {
                "x": 6,
                "y": 12,
                "id": 3,
                "rotation": 90,
                "reflected": false
            }
        },
        {
            "shape_block": {
                "x": 6,
                "y": 14,
                "id": 3,
                "rotation": 90,
                "reflected": false
            }
        },
        {
            "shape_block": {
                "x": 11,
                "y": 15,
                "id": 3,
                "rotation": 270,
                "reflected": false
            }
        },
        {
            "shape_block": {
                "x": 11,
                "y": 13,
                "id": 3,
                "rotation": 270,
                "reflected": false
            }
        },
        {
            "shape_block": {
                "x": 5,
                "y": 16,
                "id": 3,
                "rotation": 90,
                "reflected": true
            }
        },
        {
            "shape_block": {
                "x": 12,
                "y": 16,
                "id": 3,
                "rotation": 90,
                "reflected": true
            }
        },
        {
            "shape_block": {
                "x": 13,
                "y": 17,
                "id": 3,
                "rotation": 90,
                "reflected": true
            }
        },
        {
            "shape_block": {
                "x": 4,
                "y": 17,
                "id": 3,
                "rotation": 90,
                "reflected": true
            }
        },
        {
            "shape_block": {
                "x": 4,
                "y": 19,
                "id": 3,
                "rotation": 90,
                "reflected": true
            }
        },
        {
            "shape_block": {
                "x": 13,
                "y": 19,
                "id": 3,
                "rotation": 90,
                "reflected": true
            }
        },
        {
            "shape_block": {
                "x": 5,
                "y": 19,
                "id": 3,
                "rotation": 90,
                "reflected": true
            }
        },
        {
            "shape_block": {
                "x": 12,
                "y": 19,
                "id": 3,
                "rotation": 90,
                "reflected": true
            }
        },
        {
            "shape_block": {
                "x": 4,
                "y": 22,
                "id": 2,
                "rotation": 0,
                "reflected": false
            }
        },
        {
            "shape_block": {
                "x": 5,
                "y": 20,
                "id": 3,
                "rotation": 90,
                "reflected": false
            }
        },
        {
            "shape_block": {
                "x": 12,
                "y": 20,
                "id": 3,
                "rotation": 90,
                "reflected": false
            }
        },
        {
            "shape_block": {
                "x": 13,
                "y": 22,
                "id": 2,
                "rotation": 90,
                "reflected": false
            }
        },
        {
            "static_block": {
                "x": 3,
                "y": 21,
                "w": 2,
                "h": 1
            }
        },
        {
            "static_block": {
                "x": 6,
                "y": 21,
                "w": 6,
                "h": 1
            }
        },
        {
            "static_block": {
                "x": 13,
                "y": 21,
                "w": 2,
                "h": 1
            }
        },
        {
            "static_block": {
                "x": 3,
                "y": 22,
                "w": 1,
                "h": 3
            }
        },
        {
            "static_block": {
                "x": 4,
                "y": 24,
                "w": 11,
                "h": 1
            }
        },
        {
            "static_block": {
                "x": 14,
                "y": 22,
                "w": 1,
                "h": 2
            }
        },
        {
            "static_block": {
                "x": 6,
                "y": 22,
                "w": 6,
                "h": 2
            }
        }
    ],
    "dynamic_objects": [
        {
            "floating": {
                "x": 9,
                "y": 12,
                "id": "2"
            }
        },
        {
            "box": {
                "x": 9,
                "y": 14,
                "id": "main_car"
            }
        },
        {
            "floating": {
                "x": 9,
                "y": 15,
                "id": "1"
            }
        }
    ]
}
