{
    "name": "Cwazy Golf",
    "author_nickname": "AndyB",
    "notes": "Jump it!",
    "hint1": "Place a slope right next to the ball to help it over the first lump.",
    "hint2": "Drop something slightly heavy from a decent height.",
    "hint3": "Try adding slope blocks onto the thing you drop to persuade the ball to go leftwards.",
    "discussion_id": "236",
    "discussion_slug": "236-cwazy-golf",
    "highlight_notes": false,
    "effects": {},
    "zoom": {
        "w": 24,
        "x": -2.042553191489363,
        "y": -2.859574468085105
    },
    "shapes": [
        {
            "id": 0,
            "number": -1
        },
        {
            "id": 1,
            "number": -1
        },
        {
            "id": 2,
            "number": -1
        },
        {
            "id": 3,
            "number": -1
        },
        {
            "id": 4,
            "number": -1
        }
    ],
    "win_conditions": [
        {
            "bodyEnteredArea": [
                {
                    "RECT": [
                        {
                            "x": 0,
                            "y": 13
                        },
                        {
                            "x": 2,
                            "y": 15
                        }
                    ]
                },
                "main_car"
            ]
        }
    ],
    "lose_conditions": [
        {
            "greaterThan": [
                "time",
                10000
            ]
        }
    ],
    "blocks": [
        {
            "static_block": {
                "x": 0,
                "y": 15,
                "w": 16,
                "h": 1
            }
        },
        {
            "shape_block": {
                "x": 10,
                "y": 13,
                "id": 4,
                "rotation": 90,
                "reflected": true
            }
        },
        {
            "shape_block": {
                "x": 11,
                "y": 14,
                "id": 4,
                "rotation": 90,
                "reflected": true
            }
        },
        {
            "shape_block": {
                "x": 9,
                "y": 12,
                "id": 4,
                "rotation": 0,
                "reflected": false
            }
        },
        {
            "shape_block": {
                "x": 8,
                "y": 11,
                "id": 4,
                "rotation": 0,
                "reflected": false
            }
        },
        {
            "shape_block": {
                "x": 4,
                "y": 12,
                "id": 4,
                "rotation": 270,
                "reflected": false
            }
        },
        {
            "shape_block": {
                "x": 5,
                "y": 11,
                "id": 4,
                "rotation": 270,
                "reflected": false
            }
        },
        {
            "shape_block": {
                "x": 3,
                "y": 13,
                "id": 4,
                "rotation": 270,
                "reflected": false
            }
        },
        {
            "shape_block": {
                "x": 2,
                "y": 14,
                "id": 4,
                "rotation": 270,
                "reflected": false
            }
        },
        {
            "shape_block": {
                "x": 8,
                "y": 12,
                "id": 4,
                "rotation": 180,
                "reflected": false
            }
        },
        {
            "shape_block": {
                "x": 9,
                "y": 13,
                "id": 4,
                "rotation": 180,
                "reflected": false
            }
        },
        {
            "shape_block": {
                "x": 10,
                "y": 14,
                "id": 4,
                "rotation": 180,
                "reflected": false
            }
        },
        {
            "shape_block": {
                "x": 5,
                "y": 12,
                "id": 4,
                "rotation": 90,
                "reflected": false
            }
        },
        {
            "shape_block": {
                "x": 4,
                "y": 13,
                "id": 4,
                "rotation": 90,
                "reflected": false
            }
        },
        {
            "shape_block": {
                "x": 3,
                "y": 14,
                "id": 4,
                "rotation": 90,
                "reflected": false
            }
        },
        {
            "shape_block": {
                "x": 6,
                "y": 11,
                "id": 4,
                "rotation": 90,
                "reflected": false
            }
        },
        {
            "shape_block": {
                "x": 7,
                "y": 11,
                "id": 4,
                "rotation": 270,
                "reflected": true
            }
        },
        {
            "shape_block": {
                "x": 7,
                "y": 10,
                "id": 4,
                "rotation": 90,
                "reflected": true
            }
        },
        {
            "shape_block": {
                "x": 6,
                "y": 10,
                "id": 4,
                "rotation": 270,
                "reflected": false
            }
        },
        {
            "static_block": {
                "x": 12,
                "y": 14,
                "w": 1,
                "h": 1
            }
        },
        {
            "static_block": {
                "x": 9,
                "y": 14,
                "w": 1,
                "h": 1
            }
        }
    ],
    "dynamic_objects": [
        {
            "ball": {
                "x": 15,
                "y": 14,
                "id": "main_car"
            }
        }
    ]
}