{
    "name": "Hitch",
    "author_nickname": "AndyB",
    "notes": "Avoid the weirdly-high ditch!",
    "hint1": "Some kind of toppling structure is needed.",
    "hint2": "Balance on a red block and fall over to the right.",
    "hint3": "Place a slope to jump the box at the right time.",
    "discussion_id": "323",
    "discussion_slug": "323-hitch",
    "highlight_notes": false,
    "effects": {},
    "zoom": {
        "w": 20,
        "x": 1.1752136752136755,
        "y": 0.021367521367520792
    },
    "shapes": [
        {
            "id": 0,
            "number": 3
        },
        {
            "id": 2,
            "number": 1
        },
        {
            "id": 3,
            "number": 1
        },
        {
            "id": 4,
            "number": 1
        }
    ],
    "win_conditions": [
        {
            "bodyEnteredArea": [
                {
                    "RECT": [
                        {
                            "x": 15,
                            "y": 12
                        },
                        {
                            "x": 18,
                            "y": 15
                        }
                    ]
                },
                "main_car"
            ]
        }
    ],
    "lose_conditions": [
        {
            "bodyEnteredArea": [
                {
                    "RECT": [
                        {
                            "x": 9,
                            "y": 12
                        },
                        {
                            "x": 14,
                            "y": 16
                        }
                    ]
                },
                "main_car"
            ]
        },
        {
            "greaterThan": [
                "time",
                10000
            ]
        }
    ],
    "blocks": [
        {
            "static_block": {
                "x": 4,
                "y": 15,
                "w": 5,
                "h": 2
            }
        },
        {
            "static_block": {
                "x": 9,
                "y": 16,
                "w": 5,
                "h": 1
            }
        },
        {
            "static_block": {
                "x": 14,
                "y": 15,
                "w": 4,
                "h": 2
            }
        }
    ],
    "dynamic_objects": [
        {
            "box": {
                "x": 5,
                "y": 7,
                "id": "main_car"
            }
        }
    ]
}