{
    "name": "The Pillar",
    "author_nickname": "Tom",
    "notes": "Find a way from one side of the pillar to the other.",
    "hint1": "Use the ball to knock out the second blocks up.",
    "hint2": "Build a ramp using the blocks at the bottom to secure it.",
    "hint3": "Leave a pit for the blue blocks to fall into.",
    "discussion_id": "171",
    "discussion_slug": "171-the-pillar",
    "highlight_notes": false,
    "effects": {},
    "zoom": {
        "x": 0,
        "y": 0,
        "w": 30
    },
    "shapes": [
        {
            "id": 0,
            "number": 5
        },
        {
            "id": 1,
            "number": 5
        },
        {
            "id": 2,
            "number": 5
        },
        {
            "id": 3,
            "number": 5
        },
        {
            "id": 4,
            "number": 5
        }
    ],
    "win_conditions": [
        {
            "bodyEnteredArea": [
                {
                    "RECT": [
                        {
                            "x": 19,
                            "y": 15
                        },
                        {
                            "x": 22,
                            "y": 18
                        }
                    ]
                },
                "main_car"
            ]
        }
    ],
    "lose_conditions": [],
    "blocks": [
        {
            "static_block": {
                "x": 10,
                "y": 23,
                "w": 2,
                "h": 2
            }
        },
        {
            "static_block": {
                "x": 10,
                "y": 11,
                "w": 2,
                "h": 2
            }
        },
        {
            "static_block": {
                "x": 10,
                "y": -1,
                "w": 2,
                "h": 2
            }
        },
        {
            "static_block": {
                "x": 10,
                "y": 5,
                "w": 2,
                "h": 2
            }
        },
        {
            "static_block": {
                "x": 10,
                "y": 17,
                "w": 2,
                "h": 2
            }
        },
        {
            "shape_block": {
                "x": 10,
                "y": 21,
                "id": 2,
                "rotation": 0,
                "reflected": false
            }
        },
        {
            "shape_block": {
                "x": 10,
                "y": 19,
                "id": 2,
                "rotation": 0,
                "reflected": false
            }
        },
        {
            "shape_block": {
                "x": 10,
                "y": 15,
                "id": 2,
                "rotation": 0,
                "reflected": false
            }
        },
        {
            "shape_block": {
                "x": 10,
                "y": 13,
                "id": 2,
                "rotation": 0,
                "reflected": false
            }
        },
        {
            "shape_block": {
                "x": 10,
                "y": 9,
                "id": 2,
                "rotation": 0,
                "reflected": false
            }
        },
        {
            "shape_block": {
                "x": 10,
                "y": 7,
                "id": 2,
                "rotation": 0,
                "reflected": false
            }
        },
        {
            "shape_block": {
                "x": 10,
                "y": 3,
                "id": 2,
                "rotation": 0,
                "reflected": false
            }
        },
        {
            "shape_block": {
                "x": 10,
                "y": 1,
                "id": 2,
                "rotation": 0,
                "reflected": false
            }
        }
    ],
    "dynamic_objects": [
        {
            "bouncy": {
                "x": 1,
                "y": 6,
                "id": "main_car"
            }
        }
    ]
}
