{
    "name": "Shards",
    "author_nickname": "AndyB",
    "notes": "Protect the ball!",
    "hint1": "Drop a vertical block at the right height and location.",
    "hint2": "Try to block the shards.",
    "hint3": "Drop a block near the right edge of the left platform, at exactly the right height.",
    "discussion_id": "84",
    "discussion_slug": "84-shards",
    "highlight_notes": false,
    "effects": {},
    "zoom": {
        "x": 0,
        "y": 0,
        "w": 20
    },
    "shapes": [
        {
            "id": 3,
            "number": 1
        }
    ],
    "win_conditions": [
        {
            "greaterThan": [
                "time",
                5000
            ]
        }
    ],
    "lose_conditions": [
        {
            "bodyEnteredArea": [
                {
                    "RECT": [
                        {
                            "x": 15,
                            "y": 12
                        },
                        {
                            "x": 17,
                            "y": 14
                        }
                    ]
                },
                "main_car"
            ]
        },
        {
            "bodyEnteredArea": [
                {
                    "RECT": [
                        {
                            "x": 10,
                            "y": 14
                        },
                        {
                            "x": 13,
                            "y": 16
                        }
                    ]
                },
                "main_car"
            ]
        }
    ],
    "blocks": [
        {
            "static_block": {
                "x": 3,
                "y": 14,
                "w": 7,
                "h": 3
            }
        },
        {
            "static_block": {
                "x": 13,
                "y": 14,
                "w": 4,
                "h": 2
            }
        },
        {
            "shape_block": {
                "x": 5,
                "y": 11,
                "id": 4,
                "rotation": 270,
                "reflected": false
            }
        },
        {
            "shape_block": {
                "x": 5,
                "y": 13,
                "id": 4,
                "rotation": 270,
                "reflected": false
            }
        },
        {
            "shape_block": {
                "x": 5,
                "y": 12,
                "id": 4,
                "rotation": 270,
                "reflected": false
            }
        },
        {
            "shape_block": {
                "x": 6,
                "y": 11,
                "id": 4,
                "rotation": 270,
                "reflected": false
            }
        },
        {
            "shape_block": {
                "x": 6,
                "y": 12,
                "id": 4,
                "rotation": 270,
                "reflected": false
            }
        },
        {
            "shape_block": {
                "x": 6,
                "y": 13,
                "id": 4,
                "rotation": 270,
                "reflected": false
            }
        },
        {
            "shape_block": {
                "x": 4,
                "y": 11,
                "id": 4,
                "rotation": 270,
                "reflected": false
            }
        },
        {
            "shape_block": {
                "x": 4,
                "y": 12,
                "id": 4,
                "rotation": 270,
                "reflected": false
            }
        },
        {
            "shape_block": {
                "x": 4,
                "y": 13,
                "id": 4,
                "rotation": 270,
                "reflected": false
            }
        },
        {
            "shape_block": {
                "x": 3,
                "y": 11,
                "id": 4,
                "rotation": 270,
                "reflected": false
            }
        },
        {
            "shape_block": {
                "x": 3,
                "y": 12,
                "id": 4,
                "rotation": 270,
                "reflected": false
            }
        },
        {
            "shape_block": {
                "x": 3,
                "y": 13,
                "id": 4,
                "rotation": 270,
                "reflected": false
            }
        },
        {
            "shape_block": {
                "x": 3,
                "y": 10,
                "id": 4,
                "rotation": 270,
                "reflected": false
            }
        },
        {
            "shape_block": {
                "x": 4,
                "y": 10,
                "id": 4,
                "rotation": 270,
                "reflected": false
            }
        },
        {
            "shape_block": {
                "x": 5,
                "y": 10,
                "id": 4,
                "rotation": 270,
                "reflected": false
            }
        },
        {
            "shape_block": {
                "x": 6,
                "y": 10,
                "id": 4,
                "rotation": 270,
                "reflected": false
            }
        }
    ],
    "dynamic_objects": [
        {
            "ball": {
                "x": 14,
                "y": 13,
                "id": "main_car"
            }
        },
        {
            "anvil": {
                "x": 4,
                "y": 1,
                "id": "1"
            }
        }
    ]
}
