{
    "name": "M\u00e9nage \u00e0 trois",
    "author_nickname": "cf",
    "notes": "Get the first ball in the right pocket, the second ball in the middle pocket, and the last ball in the left pocket. Each ball is allowed through its own red zone.",
    "hint1": "Drop little blocks between the balls to encourage them in different diections.",
    "hint2": "Watch how the balls roll and try to place blocks that will deflect them how you want.",
    "hint3": "Experiment with different arrangements until you get lucky!",
    "discussion_id": "338",
    "discussion_slug": "338-menage-a-trois",
    "highlight_notes": false,
    "effects": {},
    "zoom": {
        "w": 34.559999999999995,
        "x": -2.2372099644128167,
        "y": 0.4357580071174302
    },
    "shapes": [
        {
            "id": 0,
            "number": -1
        },
        {
            "id": 1,
            "number": -1
        },
        {
            "id": 2,
            "number": -1
        },
        {
            "id": 3,
            "number": -1
        },
        {
            "id": 4,
            "number": -1
        }
    ],
    "win_conditions": [
        {
            "and": [
                {
                    "bodyEnteredArea": [
                        {
                            "RECT": [
                                {
                                    "x": 14,
                                    "y": 16
                                },
                                {
                                    "x": 17,
                                    "y": 19
                                }
                            ]
                        },
                        "main_car"
                    ]
                },
                {
                    "bodyEnteredArea": [
                        {
                            "RECT": [
                                {
                                    "x": -4,
                                    "y": 16
                                },
                                {
                                    "x": -1,
                                    "y": 19
                                }
                            ]
                        },
                        "2"
                    ]
                },
                {
                    "bodyEnteredArea": [
                        {
                            "RECT": [
                                {
                                    "x": 4,
                                    "y": 20
                                },
                                {
                                    "x": 9,
                                    "y": 23
                                }
                            ]
                        },
                        "1"
                    ]
                }
            ]
        }
    ],
    "lose_conditions": [
        {
            "bodyEnteredArea": [
                {
                    "RECT": [
                        {
                            "x": 11,
                            "y": 15
                        },
                        {
                            "x": 14,
                            "y": 19
                        }
                    ]
                },
                "2"
            ]
        },
        {
            "bodyEnteredArea": [
                {
                    "RECT": [
                        {
                            "x": -1,
                            "y": 15
                        },
                        {
                            "x": 2,
                            "y": 19
                        }
                    ]
                },
                "main_car"
            ]
        }
    ],
    "blocks": [
        {
            "shape_block": {
                "x": -3,
                "y": 7,
                "id": 4,
                "rotation": 0,
                "reflected": false
            }
        },
        {
            "shape_block": {
                "x": -2,
                "y": 8,
                "id": 4,
                "rotation": 0,
                "reflected": false
            }
        },
        {
            "shape_block": {
                "x": -1,
                "y": 9,
                "id": 4,
                "rotation": 0,
                "reflected": false
            }
        },
        {
            "shape_block": {
                "x": 0,
                "y": 10,
                "id": 4,
                "rotation": 0,
                "reflected": false
            }
        },
        {
            "shape_block": {
                "x": 1,
                "y": 11,
                "id": 4,
                "rotation": 0,
                "reflected": false
            }
        },
        {
            "shape_block": {
                "x": 2,
                "y": 12,
                "id": 4,
                "rotation": 0,
                "reflected": false
            }
        },
        {
            "shape_block": {
                "x": 1,
                "y": 13,
                "id": 0,
                "rotation": 180,
                "reflected": false
            }
        },
        {
            "shape_block": {
                "x": -1,
                "y": 11,
                "id": 0,
                "rotation": 180,
                "reflected": false
            }
        },
        {
            "shape_block": {
                "x": -3,
                "y": 9,
                "id": 0,
                "rotation": 180,
                "reflected": false
            }
        },
        {
            "shape_block": {
                "x": -4,
                "y": 7,
                "id": 3,
                "rotation": 180,
                "reflected": false
            }
        },
        {
            "shape_block": {
                "x": 3,
                "y": 13,
                "id": 4,
                "rotation": 0,
                "reflected": false
            }
        },
        {
            "static_block": {
                "x": 0,
                "y": 14,
                "w": 4,
                "h": 1
            }
        },
        {
            "static_block": {
                "x": -2,
                "y": 12,
                "w": 2,
                "h": 1
            }
        },
        {
            "static_block": {
                "x": -4,
                "y": 10,
                "w": 2,
                "h": 1
            }
        },
        {
            "static_block": {
                "x": -5,
                "y": 8,
                "w": 1,
                "h": 12
            }
        },
        {
            "static_block": {
                "x": -4,
                "y": 19,
                "w": 8,
                "h": 1
            }
        },
        {
            "static_block": {
                "x": 9,
                "y": 19,
                "w": 8,
                "h": 1
            }
        },
        {
            "static_block": {
                "x": 17,
                "y": 1,
                "w": 1,
                "h": 19
            }
        },
        {
            "static_block": {
                "x": -5,
                "y": 1,
                "w": 22,
                "h": 1
            }
        },
        {
            "static_block": {
                "x": 9,
                "y": 14,
                "w": 4,
                "h": 1
            }
        },
        {
            "static_block": {
                "x": 13,
                "y": 12,
                "w": 2,
                "h": 1
            }
        },
        {
            "static_block": {
                "x": 15,
                "y": 10,
                "w": 2,
                "h": 1
            }
        },
        {
            "static_block": {
                "x": 3,
                "y": 23,
                "w": 7,
                "h": 1
            }
        },
        {
            "static_block": {
                "x": 3,
                "y": 20,
                "w": 1,
                "h": 3
            }
        },
        {
            "static_block": {
                "x": 9,
                "y": 20,
                "w": 1,
                "h": 3
            }
        }
    ],
    "dynamic_objects": [
        {
            "ball": {
                "x": 3,
                "y": 11,
                "id": "main_car"
            }
        },
        {
            "ball": {
                "x": 0,
                "y": 8,
                "id": "1"
            }
        },
        {
            "ball": {
                "x": -2,
                "y": 6,
                "id": "2"
            }
        }
    ]
}
