{
    "name": "Bannisters",
    "author_nickname": "AndyB",
    "notes": "Get upstairs using slopes",
    "hint1": "Make a smooth slide down.",
    "hint2": "Jump up with one extra slope on the right of the bottom blue block.",
    "hint3": "",
    "discussion_id": "166",
    "discussion_slug": "166-bannisters",
    "highlight_notes": false,
    "effects": {},
    "zoom": {
        "x": 4,
        "y": 0,
        "w": 26
    },
    "shapes": [
        {
            "id": 4,
            "number": 9
        }
    ],
    "win_conditions": [
        {
            "bodyEnteredArea": [
                {
                    "RECT": [
                        {
                            "x": 20,
                            "y": 13
                        },
                        {
                            "x": 22,
                            "y": 15
                        }
                    ]
                },
                "main_car"
            ]
        }
    ],
    "lose_conditions": [
        {
            "greaterThan": [
                "time",
                10000
            ]
        }
    ],
    "blocks": [
        {
            "static_block": {
                "x": 5,
                "y": 11,
                "w": 2,
                "h": 2
            }
        },
        {
            "static_block": {
                "x": 11,
                "y": 17,
                "w": 2,
                "h": 2
            }
        },
        {
            "static_block": {
                "x": 13,
                "y": 19,
                "w": 4,
                "h": 1
            }
        },
        {
            "static_block": {
                "x": 9,
                "y": 15,
                "w": 2,
                "h": 2
            }
        },
        {
            "static_block": {
                "x": 7,
                "y": 13,
                "w": 2,
                "h": 2
            }
        },
        {
            "static_block": {
                "x": 17,
                "y": 17,
                "w": 2,
                "h": 2
            }
        },
        {
            "static_block": {
                "x": 19,
                "y": 15,
                "w": 2,
                "h": 2
            }
        },
        {
            "shape_block": {
                "x": 5,
                "y": 9,
                "id": 2,
                "rotation": 0,
                "reflected": false
            }
        },
        {
            "shape_block": {
                "x": 7,
                "y": 11,
                "id": 2,
                "rotation": 0,
                "reflected": false
            }
        },
        {
            "shape_block": {
                "x": 9,
                "y": 13,
                "id": 2,
                "rotation": 0,
                "reflected": false
            }
        },
        {
            "shape_block": {
                "x": 11,
                "y": 15,
                "id": 2,
                "rotation": 0,
                "reflected": false
            }
        },
        {
            "shape_block": {
                "x": 13,
                "y": 17,
                "id": 2,
                "rotation": 0,
                "reflected": false
            }
        },
        {
            "shape_block": {
                "x": 15,
                "y": 17,
                "id": 2,
                "rotation": 0,
                "reflected": false
            }
        }
    ],
    "dynamic_objects": [
        {
            "ball": {
                "x": 7,
                "y": 8,
                "id": "main_car"
            }
        }
    ]
}