{
    "name": "Jump and Scramble ",
    "author_nickname": "Tom",
    "notes": "Jump to the platform and scramble to the green box.",
    "hint1": "Use most of the shapes to make a ramp.",
    "hint2": "Use the blue square to blast lots of the triangles away from the landing zone.",
    "hint3": "",
    "discussion_id": "241",
    "discussion_slug": "241-jump-and-scramble",
    "highlight_notes": false,
    "effects": {},
    "zoom": {
        "w": 30.637512566878524,
        "x": 1.7638278298201457,
        "y": -1.3261522949196045
    },
    "shapes": [
        {
            "id": 0,
            "number": 1
        },
        {
            "id": 1,
            "number": 1
        },
        {
            "id": 2,
            "number": 1
        },
        {
            "id": 3,
            "number": 1
        },
        {
            "id": 4,
            "number": 5
        }
    ],
    "win_conditions": [
        {
            "bodyEnteredArea": [
                {
                    "RECT": [
                        {
                            "x": 21,
                            "y": 13
                        },
                        {
                            "x": 24,
                            "y": 15
                        }
                    ]
                },
                "main_car"
            ]
        }
    ],
    "lose_conditions": [],
    "blocks": [
        {
            "static_block": {
                "x": -1,
                "y": 17,
                "w": 9,
                "h": 1
            }
        },
        {
            "shape_block": {
                "x": 5,
                "y": 15,
                "id": 1,
                "rotation": 0,
                "reflected": false
            }
        },
        {
            "static_block": {
                "x": -1,
                "y": 15,
                "w": 5,
                "h": 2
            }
        },
        {
            "static_block": {
                "x": 7,
                "y": 15,
                "w": 1,
                "h": 2
            }
        },
        {
            "static_block": {
                "x": 4,
                "y": 16,
                "w": 1,
                "h": 1
            }
        },
        {
            "static_block": {
                "x": 6,
                "y": 16,
                "w": 1,
                "h": 1
            }
        },
        {
            "static_block": {
                "x": 20,
                "y": 15,
                "w": 5,
                "h": 3
            }
        },
        {
            "shape_block": {
                "x": 18,
                "y": 15,
                "id": 1,
                "rotation": 0,
                "reflected": false
            }
        },
        {
            "static_block": {
                "x": 16,
                "y": 16,
                "w": 2,
                "h": 2
            }
        },
        {
            "static_block": {
                "x": 19,
                "y": 16,
                "w": 1,
                "h": 2
            }
        },
        {
            "static_block": {
                "x": 18,
                "y": 17,
                "w": 1,
                "h": 1
            }
        },
        {
            "static_block": {
                "x": 16,
                "y": 15,
                "w": 1,
                "h": 1
            }
        },
        {
            "shape_block": {
                "x": 16,
                "y": 14,
                "id": 4,
                "rotation": 90,
                "reflected": false
            }
        },
        {
            "shape_block": {
                "x": 17,
                "y": 14,
                "id": 4,
                "rotation": 90,
                "reflected": false
            }
        },
        {
            "shape_block": {
                "x": 18,
                "y": 14,
                "id": 4,
                "rotation": 90,
                "reflected": false
            }
        },
        {
            "shape_block": {
                "x": 19,
                "y": 14,
                "id": 4,
                "rotation": 90,
                "reflected": false
            }
        },
        {
            "shape_block": {
                "x": 20,
                "y": 14,
                "id": 4,
                "rotation": 90,
                "reflected": false
            }
        },
        {
            "shape_block": {
                "x": 16,
                "y": 13,
                "id": 4,
                "rotation": 90,
                "reflected": false
            }
        },
        {
            "shape_block": {
                "x": 17,
                "y": 13,
                "id": 4,
                "rotation": 90,
                "reflected": false
            }
        },
        {
            "shape_block": {
                "x": 18,
                "y": 13,
                "id": 4,
                "rotation": 90,
                "reflected": false
            }
        },
        {
            "shape_block": {
                "x": 19,
                "y": 13,
                "id": 4,
                "rotation": 90,
                "reflected": false
            }
        },
        {
            "shape_block": {
                "x": 20,
                "y": 13,
                "id": 4,
                "rotation": 90,
                "reflected": false
            }
        },
        {
            "shape_block": {
                "x": 16,
                "y": 12,
                "id": 4,
                "rotation": 90,
                "reflected": false
            }
        },
        {
            "shape_block": {
                "x": 17,
                "y": 12,
                "id": 4,
                "rotation": 90,
                "reflected": false
            }
        },
        {
            "shape_block": {
                "x": 18,
                "y": 12,
                "id": 4,
                "rotation": 90,
                "reflected": false
            }
        },
        {
            "shape_block": {
                "x": 19,
                "y": 12,
                "id": 4,
                "rotation": 90,
                "reflected": false
            }
        },
        {
            "shape_block": {
                "x": 20,
                "y": 12,
                "id": 4,
                "rotation": 90,
                "reflected": false
            }
        },
        {
            "shape_block": {
                "x": 16,
                "y": 10,
                "id": 4,
                "rotation": 90,
                "reflected": false
            }
        },
        {
            "shape_block": {
                "x": 16,
                "y": 11,
                "id": 4,
                "rotation": 90,
                "reflected": false
            }
        },
        {
            "shape_block": {
                "x": 17,
                "y": 10,
                "id": 4,
                "rotation": 90,
                "reflected": false
            }
        },
        {
            "shape_block": {
                "x": 17,
                "y": 11,
                "id": 4,
                "rotation": 90,
                "reflected": false
            }
        },
        {
            "shape_block": {
                "x": 18,
                "y": 10,
                "id": 4,
                "rotation": 90,
                "reflected": false
            }
        },
        {
            "shape_block": {
                "x": 18,
                "y": 11,
                "id": 4,
                "rotation": 90,
                "reflected": false
            }
        },
        {
            "shape_block": {
                "x": 19,
                "y": 10,
                "id": 4,
                "rotation": 90,
                "reflected": false
            }
        },
        {
            "shape_block": {
                "x": 19,
                "y": 11,
                "id": 4,
                "rotation": 90,
                "reflected": false
            }
        },
        {
            "shape_block": {
                "x": 20,
                "y": 10,
                "id": 4,
                "rotation": 90,
                "reflected": false
            }
        },
        {
            "shape_block": {
                "x": 20,
                "y": 11,
                "id": 4,
                "rotation": 90,
                "reflected": false
            }
        },
        {
            "shape_block": {
                "x": 7,
                "y": -18,
                "id": 2,
                "rotation": 90,
                "reflected": false
            }
        },
        {
            "shape_block": {
                "x": 6,
                "y": -16,
                "id": 4,
                "rotation": 270,
                "reflected": true
            }
        },
        {
            "shape_block": {
                "x": 16,
                "y": 1,
                "id": 0,
                "rotation": 0,
                "reflected": true
            }
        }
    ],
    "dynamic_objects": [
        {
            "simple_car": {
                "x": 1,
                "y": 13,
                "id": "main_car"
            }
        }
    ]
}
