{
    "name": "Gap rally",
    "author_nickname": "cf",
    "notes": "Those jumps look a bit big.",
    "hint1": "Use the balloon platforms to help you across.",
    "hint2": "Slow down the car to get onto the first platform.",
    "hint3": "Slow down the later platforms to get the timing right.",
    "discussion_id": "274",
    "discussion_slug": "274-gap-rally",
    "highlight_notes": false,
    "effects": {},
    "zoom": {
        "w": 60,
        "x": 0,
        "y": 0
    },
    "shapes": [
        {
            "id": 0,
            "number": 1
        },
        {
            "id": 2,
            "number": 3
        },
        {
            "id": 3,
            "number": 2
        },
        {
            "id": 4,
            "number": 3
        }
    ],
    "win_conditions": [
        {
            "bodyEnteredArea": [
                {
                    "RECT": [
                        {
                            "x": 30,
                            "y": 16
                        },
                        {
                            "x": 32,
                            "y": 18
                        }
                    ]
                },
                "main_car"
            ]
        }
    ],
    "lose_conditions": [
        {
            "greaterThan": [
                "time",
                10000
            ]
        }
    ],
    "blocks": [
        {
            "static_block": {
                "x": -12,
                "y": 7,
                "w": 11,
                "h": 1
            }
        },
        {
            "static_block": {
                "x": 3,
                "y": 8,
                "w": 6,
                "h": 1
            }
        },
        {
            "static_block": {
                "x": 13,
                "y": 14,
                "w": 6,
                "h": 1
            }
        },
        {
            "static_block": {
                "x": 23,
                "y": 18,
                "w": 9,
                "h": 1
            }
        }
    ],
    "dynamic_objects": [
        {
            "simple_car": {
                "x": -10,
                "y": -2.220446049250313e-16,
                "id": "main_car"
            }
        },
        {
            "floating": {
                "x": 1,
                "y": 26,
                "id": "1"
            }
        },
        {
            "floating": {
                "x": 11,
                "y": 32,
                "id": "2"
            }
        },
        {
            "floating": {
                "x": 21,
                "y": 29,
                "id": "3"
            }
        }
    ]
}
