{
    "name": "Swing",
    "author_nickname": "cf",
    "notes": "This machine looks cool but it doesn't deliver the box to the green!",
    "hint1": "Drop a block to break the box casing as it swings towards the green.",
    "hint2": "Balance your casing-breaker on the ground piece to slow its fall so it hits at the right time.",
    "hint3": "",
    "discussion_id": "279",
    "discussion_slug": "279-swing",
    "highlight_notes": false,
    "effects": {},
    "zoom": {
        "w": 60,
        "x": 0,
        "y": 0
    },
    "shapes": [
        {
            "id": 0,
            "number": -1
        },
        {
            "id": 1,
            "number": -1
        },
        {
            "id": 2,
            "number": -1
        },
        {
            "id": 3,
            "number": -1
        },
        {
            "id": 4,
            "number": -1
        }
    ],
    "win_conditions": [
        {
            "bodyEnteredArea": [
                {
                    "RECT": [
                        {
                            "x": 27,
                            "y": 20
                        },
                        {
                            "x": 29,
                            "y": 22
                        }
                    ]
                },
                "main_car"
            ]
        }
    ],
    "lose_conditions": [
        {
            "greaterThan": [
                "time",
                5000
            ]
        }
    ],
    "blocks": [
        {
            "static_block": {
                "x": 6,
                "y": 7,
                "w": 1,
                "h": 1
            }
        },
        {
            "shape_block": {
                "x": 7,
                "y": 7,
                "id": 4,
                "rotation": 0,
                "reflected": true
            }
        },
        {
            "shape_block": {
                "x": 6,
                "y": 8,
                "id": 4,
                "rotation": 0,
                "reflected": true
            }
        },
        {
            "shape_block": {
                "x": 5,
                "y": 8,
                "id": 4,
                "rotation": 90,
                "reflected": true
            }
        },
        {
            "shape_block": {
                "x": 5,
                "y": 7,
                "id": 4,
                "rotation": 180,
                "reflected": true
            }
        },
        {
            "shape_block": {
                "x": 6,
                "y": 6,
                "id": 4,
                "rotation": 180,
                "reflected": true
            }
        },
        {
            "shape_block": {
                "x": 7,
                "y": 6,
                "id": 4,
                "rotation": 270,
                "reflected": true
            }
        },
        {
            "shape_block": {
                "x": 5,
                "y": 6,
                "id": 4,
                "rotation": 0,
                "reflected": true
            }
        },
        {
            "shape_block": {
                "x": 7,
                "y": 8,
                "id": 4,
                "rotation": 180,
                "reflected": true
            }
        },
        {
            "shape_block": {
                "x": 8,
                "y": 6,
                "id": 3,
                "rotation": 270,
                "reflected": true
            }
        },
        {
            "shape_block": {
                "x": 4,
                "y": 7,
                "id": 3,
                "rotation": 270,
                "reflected": true
            }
        },
        {
            "shape_block": {
                "x": 7,
                "y": 5,
                "id": 3,
                "rotation": 0,
                "reflected": true
            }
        },
        {
            "shape_block": {
                "x": 6,
                "y": 9,
                "id": 3,
                "rotation": 0,
                "reflected": true
            }
        },
        {
            "shape_block": {
                "x": 4,
                "y": 5,
                "id": 1,
                "rotation": 270,
                "reflected": true
            }
        },
        {
            "shape_block": {
                "x": 2,
                "y": 3,
                "id": 4,
                "rotation": 270,
                "reflected": true
            }
        },
        {
            "shape_block": {
                "x": 1,
                "y": 2,
                "id": 4,
                "rotation": 270,
                "reflected": true
            }
        },
        {
            "shape_block": {
                "x": 0,
                "y": 1,
                "id": 4,
                "rotation": 270,
                "reflected": true
            }
        },
        {
            "shape_block": {
                "x": -1,
                "y": 0,
                "id": 4,
                "rotation": 270,
                "reflected": true
            }
        },
        {
            "shape_block": {
                "x": -2,
                "y": -1,
                "id": 4,
                "rotation": 270,
                "reflected": true
            }
        },
        {
            "shape_block": {
                "x": 2,
                "y": 2,
                "id": 4,
                "rotation": 90,
                "reflected": true
            }
        },
        {
            "shape_block": {
                "x": 1,
                "y": 1,
                "id": 4,
                "rotation": 90,
                "reflected": true
            }
        },
        {
            "shape_block": {
                "x": 0,
                "y": 0,
                "id": 4,
                "rotation": 90,
                "reflected": true
            }
        },
        {
            "shape_block": {
                "x": -1,
                "y": -1,
                "id": 4,
                "rotation": 90,
                "reflected": true
            }
        },
        {
            "shape_block": {
                "x": -2,
                "y": -2,
                "id": 4,
                "rotation": 90,
                "reflected": true
            }
        },
        {
            "shape_block": {
                "x": -3,
                "y": -3,
                "id": 4,
                "rotation": 90,
                "reflected": true
            }
        },
        {
            "shape_block": {
                "x": -4,
                "y": -4,
                "id": 4,
                "rotation": 90,
                "reflected": true
            }
        },
        {
            "shape_block": {
                "x": -3,
                "y": -2,
                "id": 4,
                "rotation": 270,
                "reflected": true
            }
        },
        {
            "shape_block": {
                "x": -4,
                "y": -3,
                "id": 4,
                "rotation": 270,
                "reflected": true
            }
        },
        {
            "shape_block": {
                "x": -5,
                "y": -5,
                "id": 0,
                "rotation": 90,
                "reflected": true
            }
        },
        {
            "shape_block": {
                "x": -8,
                "y": -5,
                "id": 0,
                "rotation": 270,
                "reflected": false
            }
        },
        {
            "shape_block": {
                "x": 3,
                "y": 4,
                "id": 3,
                "rotation": 270,
                "reflected": false
            }
        },
        {
            "static_block": {
                "x": 13,
                "y": -6,
                "w": 1,
                "h": 1
            }
        },
        {
            "shape_block": {
                "x": -9,
                "y": -6,
                "id": 0,
                "rotation": 270,
                "reflected": false
            }
        },
        {
            "shape_block": {
                "x": -4,
                "y": -6,
                "id": 0,
                "rotation": 90,
                "reflected": true
            }
        },
        {
            "shape_block": {
                "x": -9,
                "y": -3,
                "id": 1,
                "rotation": 270,
                "reflected": true
            }
        },
        {
            "shape_block": {
                "x": -8,
                "y": -2,
                "id": 4,
                "rotation": 270,
                "reflected": true
            }
        },
        {
            "shape_block": {
                "x": 14,
                "y": -7,
                "id": 1,
                "rotation": 0,
                "reflected": true
            }
        },
        {
            "shape_block": {
                "x": 14,
                "y": -4,
                "id": 1,
                "rotation": 180,
                "reflected": true
            }
        },
        {
            "shape_block": {
                "x": 13,
                "y": -8,
                "id": 2,
                "rotation": 180,
                "reflected": true
            }
        },
        {
            "shape_block": {
                "x": 11,
                "y": -8,
                "id": 2,
                "rotation": 180,
                "reflected": true
            }
        },
        {
            "shape_block": {
                "x": 9,
                "y": -8,
                "id": 2,
                "rotation": 180,
                "reflected": true
            }
        },
        {
            "shape_block": {
                "x": 15,
                "y": -8,
                "id": 2,
                "rotation": 180,
                "reflected": true
            }
        },
        {
            "shape_block": {
                "x": 17,
                "y": -8,
                "id": 2,
                "rotation": 180,
                "reflected": true
            }
        },
        {
            "shape_block": {
                "x": 19,
                "y": -8,
                "id": 2,
                "rotation": 180,
                "reflected": true
            }
        },
        {
            "shape_block": {
                "x": 17,
                "y": -10,
                "id": 2,
                "rotation": 180,
                "reflected": true
            }
        }
    ],
    "dynamic_objects": [
        {
            "box": {
                "x": -6,
                "y": -3,
                "id": "main_car"
            }
        }
    ]
}
