{
    "name": "Demolition mastery",
    "author_nickname": "cf",
    "notes": "Get the box straight down!",
    "hint1": "Find a way to jerk the blocks sideways quickly.",
    "hint2": "Build arms onto the sides of the tower and drop heavy blocks onto the arms.",
    "hint3": "Build the arms at different heights and drop the blocks at different times, to bodge the tower away and allow the box to fall.",
    "discussion_id": "329",
    "discussion_slug": "329-demolition-mastery",
    "highlight_notes": false,
    "effects": {},
    "zoom": {
        "w": 20,
        "x": -0.545670225385527,
        "y": -0.9252669039145917
    },
    "shapes": [
        {
            "id": 0,
            "number": -1
        },
        {
            "id": 1,
            "number": -1
        },
        {
            "id": 2,
            "number": -1
        },
        {
            "id": 3,
            "number": -1
        },
        {
            "id": 4,
            "number": -1
        }
    ],
    "win_conditions": [
        {
            "bodyEnteredArea": [
                {
                    "RECT": [
                        {
                            "x": 7,
                            "y": 9
                        },
                        {
                            "x": 9,
                            "y": 11
                        }
                    ]
                },
                "main_car"
            ]
        }
    ],
    "lose_conditions": [],
    "blocks": [
        {
            "static_block": {
                "x": 7,
                "y": 11,
                "w": 2,
                "h": 2
            }
        },
        {
            "shape_block": {
                "x": 7,
                "y": 9,
                "id": 2,
                "rotation": 0,
                "reflected": false
            }
        },
        {
            "shape_block": {
                "x": 7,
                "y": 7,
                "id": 2,
                "rotation": 0,
                "reflected": false
            }
        },
        {
            "shape_block": {
                "x": 7,
                "y": 5,
                "id": 2,
                "rotation": 0,
                "reflected": false
            }
        },
        {
            "shape_block": {
                "x": 10,
                "y": 9,
                "id": 0,
                "rotation": 0,
                "reflected": false
            }
        },
        {
            "shape_block": {
                "x": 13,
                "y": 9,
                "id": 0,
                "rotation": 0,
                "reflected": false
            }
        },
        {
            "shape_block": {
                "x": 5,
                "y": 5,
                "id": 0,
                "rotation": 0,
                "reflected": true
            }
        },
        {
            "shape_block": {
                "x": 2,
                "y": 5,
                "id": 0,
                "rotation": 0,
                "reflected": true
            }
        },
        {
            "shape_block": {
                "x": 15,
                "y": -8,
                "id": 2,
                "rotation": 0,
                "reflected": true
            }
        },
        {
            "shape_block": {
                "x": 15,
                "y": -10,
                "id": 2,
                "rotation": 0,
                "reflected": true
            }
        },
        {
            "shape_block": {
                "x": 15,
                "y": -12,
                "id": 2,
                "rotation": 0,
                "reflected": true
            }
        },
        {
            "shape_block": {
                "x": 15,
                "y": -14,
                "id": 2,
                "rotation": 0,
                "reflected": true
            }
        },
        {
            "shape_block": {
                "x": 1,
                "y": -14,
                "id": 2,
                "rotation": 0,
                "reflected": true
            }
        },
        {
            "shape_block": {
                "x": 1,
                "y": -16,
                "id": 2,
                "rotation": 0,
                "reflected": true
            }
        },
        {
            "shape_block": {
                "x": 1,
                "y": -18,
                "id": 2,
                "rotation": 0,
                "reflected": true
            }
        },
        {
            "shape_block": {
                "x": 1,
                "y": -20,
                "id": 2,
                "rotation": 0,
                "reflected": true
            }
        },
        {
            "shape_block": {
                "x": 15,
                "y": -6,
                "id": 2,
                "rotation": 0,
                "reflected": true
            }
        },
        {
            "shape_block": {
                "x": 1,
                "y": -12,
                "id": 2,
                "rotation": 0,
                "reflected": true
            }
        }
    ],
    "dynamic_objects": [
        {
            "box": {
                "x": 8,
                "y": 4,
                "id": "main_car"
            }
        }
    ]
}
