{
    "name": "Piano",
    "author_nickname": "AndyB",
    "notes": "Bounce two octaves up, presto.",
    "hint1": "Drop a block from high to bounce the ball sideways.",
    "hint2": "Place two blocks below the ball so it bounces off their corner.",
    "hint3": "Find the right place for the last block so it doesn't get stuck.",
    "discussion_id": "264",
    "discussion_slug": "264-piano",
    "highlight_notes": false,
    "effects": {},
    "zoom": {
        "w": 41.471999999999994,
        "x": 7.019997438633956,
        "y": -0.7084636072572037
    },
    "shapes": [
        {
            "id": 2,
            "number": 4
        }
    ],
    "win_conditions": [
        {
            "bodyEnteredArea": [
                {
                    "RECT": [
                        {
                            "x": 30,
                            "y": 13
                        },
                        {
                            "x": 32,
                            "y": 15
                        }
                    ]
                },
                "main_car"
            ]
        }
    ],
    "lose_conditions": [],
    "blocks": [
        {
            "shape_block": {
                "x": 5,
                "y": 14,
                "id": 0,
                "rotation": 90,
                "reflected": false
            }
        },
        {
            "shape_block": {
                "x": 7,
                "y": 14,
                "id": 0,
                "rotation": 90,
                "reflected": false
            }
        },
        {
            "shape_block": {
                "x": 11,
                "y": 14,
                "id": 0,
                "rotation": 90,
                "reflected": false
            }
        },
        {
            "shape_block": {
                "x": 13,
                "y": 14,
                "id": 0,
                "rotation": 90,
                "reflected": false
            }
        },
        {
            "shape_block": {
                "x": 15,
                "y": 14,
                "id": 0,
                "rotation": 90,
                "reflected": false
            }
        },
        {
            "shape_block": {
                "x": 8,
                "y": 16,
                "id": 0,
                "rotation": 270,
                "reflected": false
            }
        },
        {
            "shape_block": {
                "x": 16,
                "y": 16,
                "id": 0,
                "rotation": 270,
                "reflected": false
            }
        },
        {
            "shape_block": {
                "x": 19,
                "y": 14,
                "id": 0,
                "rotation": 90,
                "reflected": false
            }
        },
        {
            "shape_block": {
                "x": 21,
                "y": 14,
                "id": 0,
                "rotation": 90,
                "reflected": false
            }
        },
        {
            "shape_block": {
                "x": 22,
                "y": 16,
                "id": 0,
                "rotation": 270,
                "reflected": false
            }
        },
        {
            "shape_block": {
                "x": 25,
                "y": 14,
                "id": 0,
                "rotation": 90,
                "reflected": false
            }
        },
        {
            "shape_block": {
                "x": 27,
                "y": 14,
                "id": 0,
                "rotation": 90,
                "reflected": false
            }
        },
        {
            "shape_block": {
                "x": 29,
                "y": 14,
                "id": 0,
                "rotation": 90,
                "reflected": false
            }
        },
        {
            "shape_block": {
                "x": 30,
                "y": 16,
                "id": 0,
                "rotation": 270,
                "reflected": false
            }
        },
        {
            "shape_block": {
                "x": 2,
                "y": 16,
                "id": 0,
                "rotation": 270,
                "reflected": false
            }
        },
        {
            "static_block": {
                "x": 2,
                "y": 18,
                "w": 1,
                "h": 1
            }
        },
        {
            "static_block": {
                "x": 30,
                "y": 18,
                "w": 1,
                "h": 1
            }
        },
        {
            "shape_block": {
                "x": 2,
                "y": 13,
                "id": 2,
                "rotation": 0,
                "reflected": false
            }
        },
        {
            "shape_block": {
                "x": 3,
                "y": -17,
                "id": 2,
                "rotation": 0,
                "reflected": false
            }
        },
        {
            "shape_block": {
                "x": 22,
                "y": 13,
                "id": 2,
                "rotation": 0,
                "reflected": false
            }
        },
        {
            "shape_block": {
                "x": 2,
                "y": 11,
                "id": 2,
                "rotation": 0,
                "reflected": false
            }
        }
    ],
    "dynamic_objects": [
        {
            "ball": {
                "x": 3,
                "y": 8,
                "id": "main_car"
            }
        }
    ]
}
