{
    "name": "Lateral thinking",
    "author_nickname": "cf",
    "notes": "Get over there!",
    "hint1": "This requires patience and skill. Try to push the balloon to the right so it floats up to the right place.",
    "hint2": "Build a long ramp attached to the ground blob. Slide something down it that pushes the balloon.",
    "hint3": "Build a small frame on top of the balloon to hold the box. Build a hook onto the bottom of the balloon. Slide a long structure down your ramp, pushing the balloon's hook. When the long structure gets to the end of the ramp and falls away, hopefully the balloon is far enough right.",
    "discussion_id": "290",
    "discussion_slug": "290-lateral-thinking",
    "effects": {},
    "zoom": {
        "w": 60,
        "x": 0,
        "y": 0
    },
    "shapes": [
        {
            "id": 0,
            "number": -1
        },
        {
            "id": 1,
            "number": -1
        },
        {
            "id": 2,
            "number": -1
        },
        {
            "id": 3,
            "number": -1
        },
        {
            "id": 4,
            "number": -1
        }
    ],
    "win_conditions": [
        {
            "bodyEnteredArea": [
                {
                    "RECT": [
                        {
                            "x": 14,
                            "y": -11
                        },
                        {
                            "x": 17,
                            "y": -7
                        }
                    ]
                },
                "1"
            ]
        }
    ],
    "lose_conditions": [],
    "blocks": [
        {
            "static_block": {
                "x": -7,
                "y": 5,
                "w": 2,
                "h": 1
            }
        }
    ],
    "dynamic_objects": [
        {
            "floating": {
                "x": 1,
                "y": 8,
                "id": "main_car"
            }
        },
        {
            "box": {
                "x": 1,
                "y": -2,
                "id": "1"
            }
        }
    ]
}
