{
    "name": "Block Blaster",
    "author_nickname": "Tom",
    "notes": "Ready, aim, fire! Knock the box into the green.",
    "hint1": "Carefully place a block on the end of the catapult.",
    "hint2": "The block need to be balanced above the triangle.",
    "hint3": "",
    "discussion_id": "291",
    "discussion_slug": "291-block-blaster",
    "highlight_notes": false,
    "effects": {},
    "zoom": {
        "w": 58.114369121469565,
        "x": 0.9428154392652232,
        "y": -0.9428154392652187
    },
    "shapes": [
        {
            "id": 2,
            "number": -1
        }
    ],
    "win_conditions": [
        {
            "bodyEnteredArea": [
                {
                    "RECT": [
                        {
                            "x": 31,
                            "y": -1
                        },
                        {
                            "x": 35,
                            "y": 3
                        }
                    ]
                },
                "main_car"
            ]
        }
    ],
    "lose_conditions": [
        {
            "greaterThan": [
                "time",
                10000
            ]
        }
    ],
    "blocks": [
        {
            "static_block": {
                "x": -1,
                "y": 21,
                "w": 2,
                "h": 2
            }
        },
        {
            "static_block": {
                "x": 19,
                "y": 4,
                "w": 3,
                "h": 2
            }
        },
        {
            "shape_block": {
                "x": 1,
                "y": 19,
                "id": 0,
                "rotation": 0,
                "reflected": true
            }
        },
        {
            "shape_block": {
                "x": -2,
                "y": 19,
                "id": 0,
                "rotation": 180,
                "reflected": true
            }
        },
        {
            "shape_block": {
                "x": -5,
                "y": 19,
                "id": 0,
                "rotation": 180,
                "reflected": true
            }
        },
        {
            "shape_block": {
                "x": -8,
                "y": 19,
                "id": 0,
                "rotation": 180,
                "reflected": true
            }
        },
        {
            "shape_block": {
                "x": -11,
                "y": 19,
                "id": 3,
                "rotation": 180,
                "reflected": true
            }
        },
        {
            "shape_block": {
                "x": -11,
                "y": 18,
                "id": 4,
                "rotation": 90,
                "reflected": true
            }
        },
        {
            "shape_block": {
                "x": 4,
                "y": 24,
                "id": 2,
                "rotation": 270,
                "reflected": true
            }
        },
        {
            "shape_block": {
                "x": 6,
                "y": 24,
                "id": 2,
                "rotation": 270,
                "reflected": true
            }
        },
        {
            "shape_block": {
                "x": 4,
                "y": 26,
                "id": 2,
                "rotation": 270,
                "reflected": true
            }
        },
        {
            "shape_block": {
                "x": 6,
                "y": 26,
                "id": 2,
                "rotation": 270,
                "reflected": true
            }
        },
        {
            "shape_block": {
                "x": 4,
                "y": 28,
                "id": 2,
                "rotation": 270,
                "reflected": true
            }
        },
        {
            "shape_block": {
                "x": 6,
                "y": 28,
                "id": 2,
                "rotation": 270,
                "reflected": true
            }
        },
        {
            "shape_block": {
                "x": 5,
                "y": 30,
                "id": 2,
                "rotation": 270,
                "reflected": true
            }
        },
        {
            "shape_block": {
                "x": 3,
                "y": 18,
                "id": 4,
                "rotation": 0,
                "reflected": true
            }
        },
        {
            "shape_block": {
                "x": 4,
                "y": 17,
                "id": 4,
                "rotation": 0,
                "reflected": true
            }
        },
        {
            "shape_block": {
                "x": 5,
                "y": 16,
                "id": 4,
                "rotation": 0,
                "reflected": true
            }
        },
        {
            "shape_block": {
                "x": 3,
                "y": 19,
                "id": 4,
                "rotation": 180,
                "reflected": true
            }
        },
        {
            "shape_block": {
                "x": 4,
                "y": 18,
                "id": 4,
                "rotation": 180,
                "reflected": true
            }
        },
        {
            "shape_block": {
                "x": 5,
                "y": 17,
                "id": 4,
                "rotation": 180,
                "reflected": true
            }
        },
        {
            "shape_block": {
                "x": 6,
                "y": 17,
                "id": 0,
                "rotation": 90,
                "reflected": false
            }
        },
        {
            "shape_block": {
                "x": 5,
                "y": 20,
                "id": 0,
                "rotation": 270,
                "reflected": true
            }
        },
        {
            "shape_block": {
                "x": 6,
                "y": 22,
                "id": 3,
                "rotation": 270,
                "reflected": true
            }
        },
        {
            "static_block": {
                "x": 22,
                "y": 3,
                "w": 2,
                "h": 3
            }
        },
        {
            "shape_block": {
                "x": 21,
                "y": 3,
                "id": 4,
                "rotation": 0,
                "reflected": true
            }
        },
        {
            "shape_block": {
                "x": 4,
                "y": 30,
                "id": 2,
                "rotation": 0,
                "reflected": true
            }
        },
        {
            "shape_block": {
                "x": 8,
                "y": 30,
                "id": 2,
                "rotation": 0,
                "reflected": true
            }
        },
        {
            "shape_block": {
                "x": 4,
                "y": 32,
                "id": 2,
                "rotation": 0,
                "reflected": true
            }
        },
        {
            "shape_block": {
                "x": 6,
                "y": 32,
                "id": 2,
                "rotation": 0,
                "reflected": true
            }
        },
        {
            "shape_block": {
                "x": 8,
                "y": 32,
                "id": 2,
                "rotation": 0,
                "reflected": true
            }
        },
        {
            "shape_block": {
                "x": -12,
                "y": 16,
                "id": 2,
                "rotation": 0,
                "reflected": false
            }
        }
    ],
    "dynamic_objects": [
        {
            "box": {
                "x": 20,
                "y": 3,
                "id": "main_car"
            }
        }
    ]
}
