{
    "name": "Impossislope",
    "author_nickname": "AndyB",
    "notes": "How does this one work?",
    "hint1": "Use what you learned by solving \"Flip\".",
    "hint2": "Build a slope out from the left and flip the car onto it.",
    "hint3": "Clamp the slope onto the ground on the left.",
    "discussion_id": "253",
    "discussion_slug": "253-impossislope",
    "highlight_notes": false,
    "effects": {},
    "zoom": {
        "w": 24,
        "x": 0.9074380165289274,
        "y": 0.1190082644628109
    },
    "shapes": [
        {
            "id": 0,
            "number": -1
        },
        {
            "id": 1,
            "number": -1
        },
        {
            "id": 2,
            "number": -1
        },
        {
            "id": 3,
            "number": -1
        },
        {
            "id": 4,
            "number": -1
        }
    ],
    "win_conditions": [
        {
            "bodyEnteredArea": [
                {
                    "RECT": [
                        {
                            "x": 8,
                            "y": 8
                        },
                        {
                            "x": 10,
                            "y": 10
                        }
                    ]
                },
                "main_car"
            ]
        }
    ],
    "lose_conditions": [
        {
            "greaterThan": [
                "time",
                20000
            ]
        }
    ],
    "blocks": [
        {
            "static_block": {
                "x": 4,
                "y": 16,
                "w": 12,
                "h": 1
            }
        },
        {
            "shape_block": {
                "x": 15,
                "y": 9,
                "id": 4,
                "rotation": 270,
                "reflected": false
            }
        },
        {
            "shape_block": {
                "x": 14,
                "y": 10,
                "id": 4,
                "rotation": 270,
                "reflected": false
            }
        },
        {
            "shape_block": {
                "x": 13,
                "y": 11,
                "id": 4,
                "rotation": 270,
                "reflected": false
            }
        },
        {
            "shape_block": {
                "x": 12,
                "y": 12,
                "id": 4,
                "rotation": 270,
                "reflected": false
            }
        },
        {
            "shape_block": {
                "x": 11,
                "y": 13,
                "id": 4,
                "rotation": 270,
                "reflected": false
            }
        },
        {
            "shape_block": {
                "x": 10,
                "y": 14,
                "id": 4,
                "rotation": 270,
                "reflected": false
            }
        },
        {
            "shape_block": {
                "x": 9,
                "y": 15,
                "id": 4,
                "rotation": 270,
                "reflected": false
            }
        },
        {
            "shape_block": {
                "x": 11,
                "y": 15,
                "id": 1,
                "rotation": 180,
                "reflected": false
            }
        },
        {
            "shape_block": {
                "x": 13,
                "y": 13,
                "id": 1,
                "rotation": 180,
                "reflected": false
            }
        },
        {
            "shape_block": {
                "x": 15,
                "y": 11,
                "id": 1,
                "rotation": 180,
                "reflected": false
            }
        },
        {
            "shape_block": {
                "x": 17,
                "y": 10,
                "id": 1,
                "rotation": 0,
                "reflected": false
            }
        },
        {
            "shape_block": {
                "x": 15,
                "y": 12,
                "id": 1,
                "rotation": 0,
                "reflected": false
            }
        },
        {
            "shape_block": {
                "x": 13,
                "y": 14,
                "id": 1,
                "rotation": 0,
                "reflected": false
            }
        },
        {
            "shape_block": {
                "x": 15,
                "y": 15,
                "id": 1,
                "rotation": 180,
                "reflected": false
            }
        },
        {
            "shape_block": {
                "x": 15,
                "y": 17,
                "id": 0,
                "rotation": 180,
                "reflected": true
            }
        },
        {
            "static_block": {
                "x": 3,
                "y": 10,
                "w": 4,
                "h": 2
            }
        }
    ],
    "dynamic_objects": [
        {
            "simple_car": {
                "x": 6,
                "y": 15,
                "id": "main_car"
            }
        }
    ]
}