{
    "name": "Droppers",
    "author_nickname": "AndyB",
    "notes": "Get them into the opposite pockets!",
    "hint1": "Adjust the swings and releases to get the boxes to fall the right way.",
    "hint2": "Make one swing fast and one slow.",
    "hint3": "If you need to, build stuff around the pockets to assist the boxes.",
    "discussion_id": "299",
    "discussion_slug": "299-droppers",
    "highlight_notes": false,
    "effects": {},
    "zoom": {
        "w": 41.471999999999994,
        "x": 0.9923618002195527,
        "y": 0.2366700329308587
    },
    "shapes": [
        {
            "id": 0,
            "number": -1
        },
        {
            "id": 1,
            "number": -1
        },
        {
            "id": 2,
            "number": -1
        },
        {
            "id": 3,
            "number": -1
        },
        {
            "id": 4,
            "number": -1
        }
    ],
    "win_conditions": [
        {
            "and": [
                {
                    "bodyEnteredArea": [
                        {
                            "RECT": [
                                {
                                    "x": 14,
                                    "y": 26
                                },
                                {
                                    "x": 18,
                                    "y": 29
                                }
                            ]
                        },
                        "left"
                    ]
                },
                {
                    "bodyEnteredArea": [
                        {
                            "RECT": [
                                {
                                    "x": 4,
                                    "y": 26
                                },
                                {
                                    "x": 8,
                                    "y": 29
                                }
                            ]
                        },
                        "right"
                    ]
                }
            ]
        }
    ],
    "lose_conditions": [
        {
            "greaterThan": [
                "time",
                20000
            ]
        }
    ],
    "blocks": [
        {
            "shape_block": {
                "x": 2,
                "y": -4,
                "id": 3,
                "rotation": 90,
                "reflected": false
            }
        },
        {
            "shape_block": {
                "x": 0,
                "y": -5,
                "id": 3,
                "rotation": 0,
                "reflected": false
            }
        },
        {
            "static_block": {
                "x": 3,
                "y": 26,
                "w": 1,
                "h": 3
            }
        },
        {
            "static_block": {
                "x": 4,
                "y": 29,
                "w": 4,
                "h": 1
            }
        },
        {
            "static_block": {
                "x": 8,
                "y": 26,
                "w": 1,
                "h": 3
            }
        },
        {
            "static_block": {
                "x": 13,
                "y": 26,
                "w": 1,
                "h": 3
            }
        },
        {
            "static_block": {
                "x": 14,
                "y": 29,
                "w": 4,
                "h": 1
            }
        },
        {
            "static_block": {
                "x": 18,
                "y": 26,
                "w": 1,
                "h": 3
            }
        },
        {
            "shape_block": {
                "x": 1,
                "y": 2,
                "id": 0,
                "rotation": 90,
                "reflected": false
            }
        },
        {
            "shape_block": {
                "x": 1,
                "y": -1,
                "id": 0,
                "rotation": 90,
                "reflected": true
            }
        },
        {
            "shape_block": {
                "x": 2,
                "y": -2,
                "id": 4,
                "rotation": 180,
                "reflected": true
            }
        },
        {
            "shape_block": {
                "x": 2,
                "y": -5,
                "id": 4,
                "rotation": 90,
                "reflected": true
            }
        },
        {
            "shape_block": {
                "x": 20,
                "y": 2,
                "id": 0,
                "rotation": 270,
                "reflected": true
            }
        },
        {
            "shape_block": {
                "x": 20,
                "y": -1,
                "id": 0,
                "rotation": 270,
                "reflected": false
            }
        },
        {
            "shape_block": {
                "x": 19,
                "y": -2,
                "id": 4,
                "rotation": 180,
                "reflected": false
            }
        },
        {
            "shape_block": {
                "x": 19,
                "y": -5,
                "id": 4,
                "rotation": 270,
                "reflected": false
            }
        },
        {
            "shape_block": {
                "x": 19,
                "y": -3,
                "id": 3,
                "rotation": 270,
                "reflected": false
            }
        },
        {
            "shape_block": {
                "x": 20,
                "y": -5,
                "id": 3,
                "rotation": 0,
                "reflected": false
            }
        }
    ],
    "dynamic_objects": [
        {
            "floating": {
                "x": 1,
                "y": 4,
                "id": "f1"
            }
        },
        {
            "floating": {
                "x": 21,
                "y": 4,
                "id": "f2"
            }
        },
        {
            "box": {
                "x": 1,
                "y": -3,
                "id": "left"
            }
        },
        {
            "box": {
                "x": 21,
                "y": -3,
                "id": "right"
            }
        }
    ]
}