{
    "name": "Witch",
    "author_nickname": "cf",
    "notes": "There is a gap under the red...",
    "hint1": "Bounce the box under the red and out again.",
    "hint2": "Drop something heavy onto the box while it's on a slope you made. Place a slope in the right of the ditch to help the box out.",
    "hint3": "The thing you drop should pivot on landing to give the box sideways momentum. Keep trying!",
    "discussion_id": "327",
    "discussion_slug": "327-witch",
    "highlight_notes": false,
    "effects": {},
    "zoom": {
        "w": 50.000000000000014,
        "x": 4.999999999999991,
        "y": 4.256183823206361
    },
    "shapes": [
        {
            "id": 0,
            "number": 2
        },
        {
            "id": 2,
            "number": 3
        },
        {
            "id": 4,
            "number": 5
        },
        {
            "id": 1,
            "number": 2
        }
    ],
    "win_conditions": [
        {
            "bodyEnteredArea": [
                {
                    "RECT": [
                        {
                            "x": 19,
                            "y": 12
                        },
                        {
                            "x": 22,
                            "y": 15
                        }
                    ]
                },
                "main_car"
            ]
        }
    ],
    "lose_conditions": [
        {
            "bodyEnteredArea": [
                {
                    "RECT": [
                        {
                            "x": 9,
                            "y": -2
                        },
                        {
                            "x": 15,
                            "y": 13
                        }
                    ]
                },
                "main_car"
            ]
        },
        {
            "greaterThan": [
                "time",
                10000
            ]
        }
    ],
    "blocks": [
        {
            "static_block": {
                "x": 4,
                "y": 15,
                "w": 5,
                "h": 2
            }
        },
        {
            "static_block": {
                "x": 9,
                "y": 16,
                "w": 6,
                "h": 1
            }
        },
        {
            "static_block": {
                "x": 15,
                "y": 15,
                "w": 7,
                "h": 2
            }
        },
        {
            "shape_block": {
                "x": 4,
                "y": 14,
                "id": 4,
                "rotation": 90,
                "reflected": false
            }
        },
        {
            "shape_block": {
                "x": 14,
                "y": 15,
                "id": 4,
                "rotation": 270,
                "reflected": false
            }
        },
        {
            "shape_block": {
                "x": 4,
                "y": 10,
                "id": 0,
                "rotation": 270,
                "reflected": true
            }
        },
        {
            "shape_block": {
                "x": 6,
                "y": 9,
                "id": 0,
                "rotation": 0,
                "reflected": true
            }
        },
        {
            "shape_block": {
                "x": 6,
                "y": -6,
                "id": 4,
                "rotation": 270,
                "reflected": true
            }
        },
        {
            "shape_block": {
                "x": 5,
                "y": -7,
                "id": 4,
                "rotation": 270,
                "reflected": true
            }
        },
        {
            "shape_block": {
                "x": 4,
                "y": -8,
                "id": 4,
                "rotation": 270,
                "reflected": true
            }
        },
        {
            "shape_block": {
                "x": 6,
                "y": -8,
                "id": 1,
                "rotation": 90,
                "reflected": true
            }
        },
        {
            "shape_block": {
                "x": 5,
                "y": -10,
                "id": 1,
                "rotation": 0,
                "reflected": true
            }
        },
        {
            "shape_block": {
                "x": 5,
                "y": -12,
                "id": 2,
                "rotation": 0,
                "reflected": true
            }
        },
        {
            "shape_block": {
                "x": 5,
                "y": -14,
                "id": 2,
                "rotation": 0,
                "reflected": true
            }
        },
        {
            "shape_block": {
                "x": 3,
                "y": -12,
                "id": 2,
                "rotation": 0,
                "reflected": true
            }
        }
    ],
    "dynamic_objects": [
        {
            "box": {
                "x": 5,
                "y": 7,
                "id": "main_car"
            }
        }
    ]
}
